{
  "intro": {
    "title": "Slushie Machines",
      "image": {
        "src": "/images/Three-slushie-cups.jpg",
        "alt": "Double Bowl Slushie Machine"
      },
      "copy": [
        "Bring something special to your party with a GoWild Slushie Machine!",
        "We offer high quality single and double bowl machines, and a massive selection of mouthwatering flavours. Perfect for parties all year round, our slushie machines are a big hit at both childrens and adults parties.",
        "We will come and set up and teach you how to use the machine, and we supply everything you need, even the cups and the straws! and there is no need for you to clean the machine as we pull the machine apart after every use and do a thorough clean and make sure the machines are in good working order.",
        "We do required a sturdy table or bench to put the slushie machine on as it is quite heavy once filled.",
        "Don’t miss out on the magic of a slushie machine at YOUR party! Place your booking today."
      ]
  },
  "products": [
      {
        "title": "New Faby 1 - Single bowl slushie machine",
        "image": {
          "src": "/images/slushie-single.jpg",
          "alt": "Single Bowl Slushie"
        },
        "copy": [
          "Hire price $100 or just $70 with any Castle hire.",
          "This machine is great for small parties or short events where only 1 flavour is required. It holds 10ltrs which makes approximately 50 serves."
        ],
        "includes": [
          "1x your choice of slushie mix, see below for kids and adult mixes",
          "50x 225ml cups",
          "50x spoon straws"
        ]
      },
      {
        "title": "New Faby 2 - Double bowl slushie machine",
        "image": {
          "src": "/images/slushie-double.jpg",
          "alt": "Double Bowl Slushie"
        },
        "copy": [
          "Hire price $170 or just $140 with any Castle hire.",
          "This machine is ideal for larger parties and events. You can have 2 flavours to add some variety. It holds 10ltrs per bowl, which makes approximately 100 serves."
        ],
        "includes": [
          "2x your choice of slushie mix, see below for kids and adult mixes",
          "75x 225ml cups",
          "75x  spoon straws"
        ]
      }
    ],
  "rawflavours": {
      "cocktails": [
        "<span style=\"color: #ef476b; font-weight: bold;\">Arctic Watermelon</span>: Suggested spirit: Vodka",
        "<span style=\"color: #00b050; font-weight: bold;\">Appletini</span>: Suggested spirit: Vodka",
        "<span style=\"color: #fb8d15; font-weight: bold;\">Attitude</span>: Pineapple, Banana, Orange, Mango; Suggested spirit: Vodka  White Rum or Vodka",
        "<span style=\"color: #ffff00; font-weight: bold; background-color: #3B3B3B;\">&nbsp;Banana&nbsp;</span>: Suggested spirit: White Rum",
        "<span style=\"color: #990033; font-weight: bold;\">Black Widow</span>: Black Currant, Peach, Cherry; Suggested spirit: Vodka",
        "<span style=\"color: #cc3300; font-weight: bold;\">Blood Red Orange</span>: Suggested spirit: Vodka",
        "<span style=\"color: #0070c0; font-weight: bold;\">Blue Hawaii</span>: Lemon, Peach, Orange; Suggested spirit: White Rum",
        "<span style=\"color: #0070c0; font-weight: bold;\">Blue Lagoon</span>: Orange, Pineapple, Coconut; Suggested spirit: White Rum",
        "<span style=\"color: #ef476b; font-weight: bold;\">Cosmopolitan</span>: Cranberry, Orange, Lime, Strawberry: Suggested spirit: Vodka",
        "<span style=\"color: #f5720f; font-weight: bold;\">Caribbean Crush</span>: Tropical fruit blend: Suggested spirit: White Rum or Vodka",
        "<span style=\"color: #c2fe8c; font-weight: bold; background-color: #3B3B3B;\">&nbsp;Caipiroska&nbsp;</span>: Lime, Lemon Suggested spirit: Vodka",
        "<span style=\"color: #ef476b; font-weight: bold;\">Chi-Chi</span>: Pineapple, Coconut, Cherry; Suggested spirit: Vodka",
        "<span style=\"color: #00b050; font-weight: bold;\">Coyote Ugly</span>: Passionfruit, Black Currant, Mango, Orange: Suggested spirit: Vodka",
        "<span style=\"color: #0070c0; font-weight: bold;\">Ecstasy</span>: Pineapple, Orange, Lime: Suggested spirit: Vodka",
        "<span style=\"color: #7030a0; font-weight: bold;\">Fruit Tingle</span>: Orange, Banana, Pineapple, Passionfruit: Suggested spirit: Vodka",
        "<span style=\"color: #cc3300; font-weight: bold;\">Head Rush</span>: Orange, Peach, Strawberry: Suggested spirit: Vodka",
        "<span style=\"color: #fb8d15; font-weight: bold;\">Hurricane</span>: Passionfruit, Pineapple, Orange, Lime: Suggested spirit: White Rum",
        "<span style=\"color: #cc3300; font-weight: bold;\">Jungle Juice</span>: Pineapple, Coconut, Banana: Suggested spirit: White Rum ",
        "<span style=\"color: #00b050; font-weight: bold;\">Kamikaze</span>: Lemon, Lime, Melon: Suggested spirit: Vodka ",
        "<span style=\"color: #00b050; font-weight: bold;\">Kiwi Kiss: Kiwifruit, Pineapple</span>: Suggested spirit: Vodka",
        "<span style=\"color: #0070c0; font-weight: bold;\">Lunar Dream</span>: Lemon, Passionfruit; Suggested spirit: Vodka",
        "<span style=\"color: #cc0000; font-weight: bold;\">Lemon Lime Bitters</span>: Suggested spirit: Vodka",
        "<span style=\"color: #fb8d15; font-weight: bold;\">Mai Tai</span>: Orange, Pineapple; Suggested spirit: White Rum",
        "<span style=\"color: #ffff00; font-weight: bold; background-color: #3B3B3B;\">&nbsp;Mango&nbsp;</span>: Suggested spirit: White Rum",
        "<span style=\"color: #c2fe8c; font-weight: bold; background-color: #3B3B3B;\">&nbsp;Margarita&nbsp;</span>: Lemon: Suggested spirit: Tequila",
        "<span style=\"color: #00b050; font-weight: bold;\">Melon Mist (illusion)</span>: Melon, Pineapple: Suggested spirit: Vodka",
        "<span style=\"color: #00b050; font-weight: bold;\">Melon Splice/Detonator</span>: Melon, Pineapple, Coconut: Suggested spirit: Vodka",
        "<span style=\"color: #c2fe8c; font-weight: bold; background-color: #3B3B3B;\">&nbsp;Mojito&nbsp;</span>: Lime, Mint: Suggested spirit: White Rum",
        "<span style=\"color: #663300; font-weight: bold;\">Mudslide</span>: Chocolate, Coffee; Suggested spirit: Vodka",
        "<span style=\"color: #ffff99; font-weight: bold; background-color: #3B3B3B;\">&nbsp;Pina Colada&nbsp;</span>: Pineapple, Coconut; Suggested spirit: White Rum",
        "<span style=\"color: #ef476b; font-weight: bold;\">Pink Panther</span>: Pineapple, Grenadine, Cherry and Amaretto Almond; Suggested spirit: Vodka",
        "<span style=\"color: #fb8d15; font-weight: bold;\">Peach Bellini</span>: Champagne/Sparkling wine: 4 bottles for 10lt mix (4.2%alc)",
        "<span style=\"color: #7030a0; font-weight: bold;\">Purple Haze</span>: Strawberry, Raspberry, Black Currant, Grape: Suggested spirit: Vodka",
        "<span style=\"color: #ffc000; font-weight: bold;\">Red Gladiator</span>: Red bull flavour; Suggested spirit: Vodka",
        "<span style=\"color: #ef476b; font-weight: bold;\">Sex on the Beach</span>: Peach, Cranberry, Orange; Suggested spirit: Vodka",
        "<span style=\"color: #ff0000; font-weight: bold;\">Strawberry</span>: Suggested spirit: White Rum",
        "<span style=\"color: #ef476b; font-weight: bold;\">Tequila Sunrise</span>: Orange, Grenadine: Suggested spirit: Tequila"
      ],
      "kidsFlavours": [
        "<span style=\"color: #0070c0; font-weight: bold;\">Blue Lemon</span>",
        "<span style=\"color: #0070c0; font-weight: bold;\">Blueberry</span>",
        "<span style=\"color: #ff0066; font-weight: bold;\">Bubblegum</span>",
        "<span style=\"color: #984806; font-weight: bold;\">Cola</span>",
        "<span style=\"color: #7030a0; font-weight: bold;\">Grape</span>",
        "<span style=\"font-weight: bold;\">Lemon: no colour</span>",
        "<span style=\"color: #ff6600; font-weight: bold;\">Orange</span>",
        "<span style=\"color: #00b050; font-weight: bold;\">Lime</span>",
        "<span style=\"color: #ffff00; font-weight: bold; background-color: #3B3B3B;\">&nbsp;Mango&nbsp;</span>",
        "<span style=\"color: #ffff00; font-weight: bold; background-color: #3B3B3B;\">&nbsp;Passionfruit&nbsp;</span>",
        "<span style=\"color: #ffff00; font-weight: bold; background-color: #3B3B3B;\">&nbsp;Pineapple&nbsp;</span>",
        "<span style=\"color: #00b050; font-weight: bold;\">Pine-Lime</span>",
        "<span style=\"color: #ec025b; font-weight: bold;\">Raspberry</span>",
        "<span style=\"color: #ff3300; font-weight: bold;\">Strawberry</span>",
        "<span style=\"color: #00b050; font-weight: bold;\">Sour Apple</span>",
        "<span style=\"color: #ff6600; font-weight: bold;\">Tropical</span>",
        "<span style=\"color: #ec025b; font-weight: bold;\">Watermelon</span>",
        "<span style=\"color: #7030a0; font-weight: bold;\">Wildberry</span>"
      ]
    }
}
