{
  "intro": {
    "title": "Jumping Castles",
    "image": {
      "src": "/images/castle-in-yard.jpg",
      "alt": "Double Bowl Slushie Machine"
    },
    "copy": [
      "Busy setting up for a Birthday Party for your little one and their friends. Trying to think of games and other ways to keep them entertained. Our customers all tell us the easiest way to go about it is to forget the games and the stress and just hire one of our Jumping castle’s to keep the kids entertained and keeping you from running around all day. Sit back and watch the kids play jump and Gowild of course.",
      "All our Castles have more than just Jumping areas for that extra fun, All our our Castles are Combo’s that include Slides, Stairs, jumping area, basket ball hoop and we even supply a soft ball for play.",
      "Aside from the fun all our castles all look great with the whole front covered in a theme and also on the side and viewing holes"
    ]
  },
  "products": [
    {
      "title": "Paw Patrol 4in1",
      "slug": "paw-patrol",
      "image": {
        "src": "/images/paw-patrol.jpg",
        "alt": "Paw Patrol 4in1"
      },
      "thumbnail": {
        "src": "/images/paw-patrol-thumbnail.jpg",
        "alt": "Paw Patrol 4in1"
      },
      "gallery": [
        {
          "url": "/images/paw-patrol-gallery1.jpg",
          "alt": "Paw Patrol side view"
        },
        {
          "url": "/images/4in1-gallery2.jpg",
          "alt": "Paw Patrol jumping area and basketball hoop"
        },
        {
          "url": "/images/4in1-gallery3.jpg",
          "alt": "Paw Patrol slide"
        }
      ],
      "copy": {
        "keyInfo": [
          "$230 all day hire",
          "6m x 6m space required",
          "Available in a <span ng-click=\"togglePackages()\" class=\"package\">package deal!</span>"
        ],
        "body": [
          "4in1 combo Castles have: Slide, Stairs, Basket Ball hoop and Jumping area to provide plenty of fun for the kids, at an added bonus the kids are kept occupied to make an easier party for the grown ups.<br />This castle has a shade cover and also has large viewing windows each side so you can easily see the kids playing.<br />4in1 combo castles are perfect for most age groups<br />Maximum weight at one time is 400kg which normally works out to 10-15 kids at a time.<br />Size of this Castle is 5m x 5m and we require an area of 6m x 6m to set up the castle with no overhanging trees in this area.",
          "All day hire is $230<br />Overnight hire is just an extra $30(pick up approx 8am)",
          "All hires include free delivery/pick up within 50km of our address at 4115, set up, pack up, insurance and a friendly service.<br />Emails us with any questions you may have about this Castle and to check availability.<br />We also offer <span ng-click=\"$parent.togglePackages()\" class=\"package\">package deal!</span> when hiring more than one product.",
          "*Please note the jumping castles need to be within 25m of a power point and cannot be shared with any other appliance. (eg, no power board or double adapter)<br />When making a booking we require a $30 deposit to secure your required day. all deposits are refundable if cancellation is 48hrs prior to your booking."
        ]
      },
      "packages": [
        {
          "others": ["Single Bowl Slushie"],
          "price": "$300"
        },
        {
          "others": ["Fairy Floss Machine"],
          "price": "$330"
        }
      ]
    },
    {
      "title": "Ninja Turtles 4in1",
      "slug": "ninja-turtles",
      "image": {
        "src": "/images/ninja-turtles.jpg",
        "alt": "Ninja Turtles 4in1"
      },
      "thumbnail": {
        "src": "/images/ninja-turtles-thumbnail.jpg",
        "alt": "Ninja Turtles 4in1"
      },
      "gallery": [
        {
          "url": "/images/ninja-turtles-gallery1.jpg",
          "alt": "Ninja Turtles side view"
        },
        {
          "url": "/images/4in1-gallery2.jpg",
          "alt": "Ninja Turtles jumping area and basketball hoop"
        },
        {
          "url": "/images/4in1-gallery3.jpg",
          "alt": "Ninja Turtles slide"
        }
      ],
      "copy": {
        "keyInfo": [
          "$230 all day hire",
          "6m x 6m space required",
          "Available in a <span ng-click=\"togglePackages()\" class=\"package\">package deal!</span>"
        ],
        "body": [
          "4in1 combo Castles have: Slide, Stairs, Basket Ball hoop and Jumping area to provide plenty of fun for the kids, at an added bonus the kids are kept occupied to make an easier party for the grown ups.<br />This castle has a shade cover and also has large viewing windows each side so you can easily see the kids playing.<br />4in1 combo castles are perfect for most age groups<br />Maximum weight at one time is 400kg which normally works out to 10-15 kids at a time.<br />Size of this Castle is 5m x 5m and we require an area of 6m x 6m to set up the castle with no overhanging trees in this area.",
          "All day hire is $230<br />Overnight hire is just an extra $30(pick up approx 8am)",
          "All hires include free delivery/pick up within 50km of our address at 4115, set up, pack up, insurance and a friendly service.<br />Emails us with any questions you may have about this Castle and to check availability.<br />We also offer <span ng-click=\"$parent.togglePackages()\" class=\"package\">package deal!</span> when hiring more than one product.",
          "*Please note the jumping castles need to be within 25m of a power point and cannot be shared with any other appliance. (eg, no power board or double adapter)<br />When making a booking we require a $30 deposit to secure your required day. all deposits are refundable if cancellation is 48hrs prior to your booking."
        ]
      },
      "packages": [
        {
          "others": ["Single Bowl Slushie"],
          "price": "$300"
        },
        {
          "others": ["Fairy Floss Machine"],
          "price": "$330"
        }
      ]
    },
    {
      "title": "Transformers 4in1",
      "slug": "transformers",
      "image": {
        "src": "/images/transformers.jpg",
        "alt": "Transformers 4in1"
      },
      "thumbnail": {
        "src": "/images/transformers-thumbnail.jpg",
        "alt": "Transformers 4in1"
      },
      "gallery": [
        {
          "url": "/images/transformers-gallery1.jpg",
          "alt": "Transformers side view"
        },
        {
          "url": "/images/4in1-gallery2.jpg",
          "alt": "Transformers jumping area and basketball hoop"
        },
        {
          "url": "/images/4in1-gallery3.jpg",
          "alt": "Transformers slide"
        }
      ],
      "copy": {
        "keyInfo": [
          "$230 all day hire",
          "6m x 6m space required",
          "Available in a <span ng-click=\"togglePackages()\" class=\"package\">package deal!</span>"
        ],
        "body": [
          "4in1 combo Castles have: Slide, Stairs, Basket Ball hoop and Jumping area to provide plenty of fun for the kids, at an added bonus the kids are kept occupied to make an easier party for the grown ups.<br />This castle has a shade cover and also has large viewing windows each side so you can easily see the kids playing.<br />4in1 combo castles are perfect for most age groups<br />Maximum weight at one time is 400kg which normally works out to 10-15 kids at a time.<br />Size of this Castle is 5m x 5m and we require an area of 6m x 6m to set up the castle with no overhanging trees in this area.",
          "All day hire is $230<br />Overnight hire is just an extra $30(pick up approx 8am)",
          "All hires include free delivery/pick up within 50km of our address at 4115, set up, pack up, insurance and a friendly service.<br />Emails us with any questions you may have about this Castle and to check availability.<br />We also offer <span ng-click=\"$parent.togglePackages()\" class=\"package\">package deal!</span> when hiring more than one product.",
          "*Please note the jumping castles need to be within 25m of a power point and cannot be shared with any other appliance. (eg, no power board or double adapter)<br />When making a booking we require a $30 deposit to secure your required day. all deposits are refundable if cancellation is 48hrs prior to your booking."
        ]
      },
      "packages": [
        {
          "others": ["Single Bowl Slushie"],
          "price": "$300"
        },
        {
          "others": ["Fairy Floss Machine"],
          "price": "$330"
        }
      ]
    },
    {
      "title": "Monster High 4in1",
      "slug": "monster-high",
      "image": {
        "src": "/images/monster-high.jpg",
        "alt": "Monster High 4in1"
      },
      "thumbnail": {
        "src": "/images/monster-high-thumbnail.jpg",
        "alt": "Monster High 4in1"
      },
      "gallery": [
        {
          "url": "/images/monster-high-gallery1.jpg",
          "alt": "Transformers side view"
        },
        {
          "url": "/images/4in1-gallery2.jpg",
          "alt": "Transformers jumping area and basketball hoop"
        },
        {
          "url": "/images/4in1-gallery3.jpg",
          "alt": "Transformers slide"
        }
      ],
      "copy": {
        "keyInfo": [
          "$230 all day hire",
          "6m x 6m space required",
          "Available in a <span ng-click=\"togglePackages()\" class=\"package\">package deal!</span>"
        ],
        "body": [
          "4in1 combo Castles have: Slide, Stairs, Basket Ball hoop and Jumping area to provide plenty of fun for the kids, at an added bonus the kids are kept occupied to make an easier party for the grown ups.<br />This castle has a shade cover and also has large viewing windows each side so you can easily see the kids playing.<br />4in1 combo castles are perfect for most age groups<br />Maximum weight at one time is 400kg which normally works out to 10-15 kids at a time.<br />Size of this Castle is 5m x 5m and we require an area of 6m x 6m to set up the castle with no overhanging trees in this area.",
          "All day hire is $230<br />Overnight hire is just an extra $30(pick up approx 8am)",
          "All hires include free delivery/pick up within 50km of our address at 4115, set up, pack up, insurance and a friendly service.<br />Emails us with any questions you may have about this Castle and to check availability.<br />We also offer <span ng-click=\"$parent.togglePackages()\" class=\"package\">package deal!</span> when hiring more than one product.",
          "*Please note the jumping castles need to be within 25m of a power point and cannot be shared with any other appliance. (eg, no power board or double adapter)<br />When making a booking we require a $30 deposit to secure your required day. all deposits are refundable if cancellation is 48hrs prior to your booking."
        ]
      },
      "packages": [
        {
          "others": ["Single Bowl Slushie"],
          "price": "$300"
        },
        {
          "others": ["Fairy Floss Machine"],
          "price": "$330"
        }
      ]
    },
    {
      "title": "Disney Princess 4in1",
      "slug": "disney-princess",
      "image": {
        "src": "/images/disney-princess.jpg",
        "alt": "Disney Princess 4in1"
      },
      "thumbnail": {
        "src": "/images/disney-princess-thumbnail.jpg",
        "alt": "Disney Princess 4in1"
      },
      "gallery": [
        {
          "url": "/images/disney-princess-gallery1.jpg",
          "alt": "Transformers side view"
        },
        {
          "url": "/images/4in1-gallery2.jpg",
          "alt": "Transformers jumping area and basketball hoop"
        },
        {
          "url": "/images/4in1-gallery3.jpg",
          "alt": "Transformers slide"
        }
      ],
      "copy": {
        "keyInfo": [
          "$230 all day hire",
          "6m x 6m space required",
          "Available in a <span ng-click=\"togglePackages()\" class=\"package\">package deal!</span>"
        ],
        "body": [
          "4in1 combo Castles have: Slide, Stairs, Basket Ball hoop and Jumping area to provide plenty of fun for the kids, at an added bonus the kids are kept occupied to make an easier party for the grown ups.<br />This castle has a shade cover and also has large viewing windows each side so you can easily see the kids playing.<br />4in1 combo castles are perfect for most age groups<br />Maximum weight at one time is 400kg which normally works out to 10-15 kids at a time.<br />Size of this Castle is 5m x 5m and we require an area of 6m x 6m to set up the castle with no overhanging trees in this area.",
          "All day hire is $230<br />Overnight hire is just an extra $30(pick up approx 8am)",
          "All hires include free delivery/pick up within 50km of our address at 4115, set up, pack up, insurance and a friendly service.<br />Emails us with any questions you may have about this Castle and to check availability.<br />We also offer <span ng-click=\"$parent.togglePackages()\" class=\"package\">package deal!</span> when hiring more than one product.",
          "*Please note the jumping castles need to be within 25m of a power point and cannot be shared with any other appliance. (eg, no power board or double adapter)<br />When making a booking we require a $30 deposit to secure your required day. all deposits are refundable if cancellation is 48hrs prior to your booking."
        ]
      },
      "packages": [
        {
          "others": ["Single Bowl Slushie"],
          "price": "$300"
        },
        {
          "others": ["Fairy Floss Machine"],
          "price": "$330"
        }
      ]
    },
    {
      "title": "Frozen 4in1",
      "slug": "frozen",
      "image": {
        "src": "/images/frozen.jpg",
        "alt": "Frozen 4in1"
      },
      "thumbnail": {
        "src": "/images/frozen-thumbnail.jpg",
        "alt": "Frozen 4in1"
      },
      "gallery": [
        {
          "url": "/images/frozen-gallery1.jpg",
          "alt": "Frozen side view"
        },
        {
          "url": "/images/4in1-gallery2.jpg",
          "alt": "Frozen jumping area and basketball hoop"
        },
        {
          "url": "/images/4in1-gallery3.jpg",
          "alt": "Frozen slide"
        }
      ],
      "copy": {
        "keyInfo": [
          "$230 all day hire",
          "6m x 6m space required",
          "Available in a <span ng-click=\"togglePackages()\" class=\"package\">package deal!</span>"
        ],
        "body": [
          "4in1 combo Castles have: Slide, Stairs, Basket Ball hoop and Jumping area to provide plenty of fun for the kids, at an added bonus the kids are kept occupied to make an easier party for the grown ups.<br />This castle has a shade cover and also has large viewing windows each side so you can easily see the kids playing.<br />4in1 combo castles are perfect for most age groups<br />Maximum weight at one time is 400kg which normally works out to 10-15 kids at a time.<br />Size of this Castle is 5m x 5m and we require an area of 6m x 6m to set up the castle with no overhanging trees in this area.",
          "All day hire is $230<br />Overnight hire is just an extra $30(pick up approx 8am)",
          "All hires include free delivery/pick up within 50km of our address at 4115, set up, pack up, insurance and a friendly service.<br />Emails us with any questions you may have about this Castle and to check availability.<br />We also offer <span ng-click=\"$parent.togglePackages()\" class=\"package\">package deal!</span> when hiring more than one product.",
          "*Please note the jumping castles need to be within 25m of a power point and cannot be shared with any other appliance. (eg, no power board or double adapter)<br />When making a booking we require a $30 deposit to secure your required day. all deposits are refundable if cancellation is 48hrs prior to your booking."
        ]
      },
      "packages": [
        {
          "others": ["Single Bowl Slushie"],
          "price": "$300"
        },
        {
          "others": ["Fairy Floss Machine"],
          "price": "$330"
        }
      ]
    }
  ]
}
